module codeberg.org/rww/moncon

go 1.21

require golang.org/x/sys v0.17.0

require (
	github.com/capnspacehook/taskmaster v0.0.0-20210519235353-1629df7c85e9
	github.com/google/go-cmp v0.6.0
	github.com/rickb777/date v1.14.2
	github.com/spf13/cobra v1.8.0
	github.com/spf13/pflag v1.0.5
	github.com/spf13/viper v1.18.2
)

require (
	github.com/fsnotify/fsnotify v1.7.0 // indirect
	github.com/go-ole/go-ole v1.2.4 // indirect
	github.com/hashicorp/hcl v1.0.0 // indirect
	github.com/inconshreveable/mousetrap v1.1.0 // indirect
	github.com/magiconair/properties v1.8.7 // indirect
	github.com/mitchellh/mapstructure v1.5.0 // indirect
	github.com/pelletier/go-toml/v2 v2.1.0 // indirect
	github.com/rickb777/plural v1.2.2 // indirect
	github.com/sagikazarmark/locafero v0.4.0 // indirect
	github.com/sagikazarmark/slog-shim v0.1.0 // indirect
	github.com/sourcegraph/conc v0.3.0 // indirect
	github.com/spf13/afero v1.11.0 // indirect
	github.com/spf13/cast v1.6.0 // indirect
	github.com/subosito/gotenv v1.6.0 // indirect
	go.uber.org/atomic v1.9.0 // indirect
	go.uber.org/multierr v1.9.0 // indirect
	golang.org/x/exp v0.0.0-20230905200255-921286631fa9 // indirect
	golang.org/x/text v0.14.0 // indirect
	gopkg.in/ini.v1 v1.67.0 // indirect
	gopkg.in/yaml.v3 v3.0.1 // indirect
)
